<svg width="22" height="22" viewBox="0 0 22 22" fill="none" xmlns="http://www.w3.org/2000/svg">
<path fill-rule="evenodd" clip-rule="evenodd" d="M16.7763 12.3562C17.5799 12.6575 18.484 12.8584 19.3881 12.9589C20.895 13.1598 22 14.4658 22 15.9726V18.9863C22 19.79 21.5982 20.4932 21.0959 21.0959C20.5936 21.6986 19.79 22 18.9863 22H18.6849C15.4703 21.6986 12.2557 20.5936 9.54338 18.7854C7.03196 17.1781 4.82192 14.968 3.21461 12.4566C1.50685 9.74429 0.30137 6.52968 0 3.31507C0 2.51142 0.200913 1.70776 0.703196 1.10502C1.20548 0.502283 1.90868 0.100457 2.71233 0H3.0137H6.0274C7.53425 0 8.84018 1.10502 9.0411 2.61187C9.14155 3.51598 9.34247 4.42009 9.64384 5.22374C10.0457 6.32877 9.74429 7.6347 8.94064 8.43836L8.23744 9.14155C9.44292 11.0502 11.0502 12.5571 12.8584 13.7626L13.5616 13.0594C14.4658 12.2557 15.6712 11.9543 16.7763 12.3562ZM19.9909 18.9863V15.9726C19.9909 15.4703 19.589 15.0685 19.1872 14.968C18.1826 14.7671 17.1781 14.5662 16.1735 14.1644C15.7717 13.9635 15.3699 14.0639 15.0685 14.3653L13.7626 15.6712C13.4612 16.0731 12.9589 16.0731 12.5571 15.8721C9.84475 14.3653 7.6347 12.1553 6.12785 9.44292C5.92694 9.0411 6.0274 8.53881 6.32877 8.23744L7.6347 7.03196C7.83562 6.73059 7.93607 6.32877 7.83562 5.92694C7.43379 5.02283 7.13242 3.91781 7.03196 2.91324C6.93151 2.41096 6.52968 2.00913 6.0274 2.00913H3.0137C2.71233 2.00913 2.41096 2.21005 2.21005 2.41096C2.10959 2.61187 2.00913 2.81279 2.00913 3.11416C2.3105 6.0274 3.31507 8.84018 4.92237 11.3516C6.42922 13.6621 8.3379 15.6712 10.6484 17.0776C13.1598 18.6849 15.9726 19.6895 18.8858 19.9909C19.2877 19.9909 19.4886 19.8904 19.6895 19.6895C19.8904 19.4886 19.9909 19.2877 19.9909 18.9863Z" fill="#9ACF62"/>
</svg>
